…
<!-- -->

    view(provider_hhrg)
    view(case_mix_weight)

-   Information Available in both datasets: Episodes, Therapy, Clinical
    Severity Level, Functional Severity Level 1, Service Severity Level
    1

*Data frame provider\_hhrg*

    tibble(provider_hhrg$Grpng_Desc) %>%
      distinct()

    ## # A tibble: 153 × 1
    ##    `provider_hhrg$Grpng_Desc`                                                   
    ##    <chr>                                                                        
    ##  1 Early Episode, 0-13 therapies,Clinical Severity Level 1, Functional Severity…
    ##  2 Early Episode, 0-13 therapies,Clinical Severity Level 1, Functional Severity…
    ##  3 Early Episode, 0-13 therapies,Clinical Severity Level 1, Functional Severity…
    ##  4 Early Episode, 0-13 therapies,Clinical Severity Level 1, Functional Severity…
    ##  5 Early Episode, 0-13 therapies,Clinical Severity Level 1, Functional Severity…
    ##  6 Early Episode, 0-13 therapies,Clinical Severity Level 1, Functional Severity…
    ##  7 Early Episode, 0-13 therapies,Clinical Severity Level 1, Functional Severity…
    ##  8 Early Episode, 0-13 therapies,Clinical Severity Level 1, Functional Severity…
    ##  9 Early Episode, 0-13 therapies,Clinical Severity Level 1, Functional Severity…
    ## 10 Early Episode, 0-13 therapies,Clinical Severity Level 1, Functional Severity…
    ## # … with 143 more rows

*Data frame case\_mix\_weight*

    tibble(
      case_mix_weight$`Clinical, Functional, and Service Levels`,
      case_mix_weight$Description
    )

    ## # A tibble: 153 × 2
    ##    `case_mix_weight$\`Clinical, Functional, and Service Level…` `case_mix_weig…`
    ##    <chr>                                                        <chr>           
    ##  1 C1F1S1                                                       1st and 2nd Epi…
    ##  2 C1F1S2                                                       1st and 2nd Epi…
    ##  3 C1F1S3                                                       1st and 2nd Epi…
    ##  4 C1F1S4                                                       1st and 2nd Epi…
    ##  5 C1F1S5                                                       1st and 2nd Epi…
    ##  6 C1F2S1                                                       1st and 2nd Epi…
    ##  7 C1F2S2                                                       1st and 2nd Epi…
    ##  8 C1F2S3                                                       1st and 2nd Epi…
    ##  9 C1F2S4                                                       1st and 2nd Epi…
    ## 10 C1F2S5                                                       1st and 2nd Epi…
    ## # … with 143 more rows
…
    case_mix_weight_v2

    ## # A tibble: 153 × 7
    ##    `Payment group` Episode              Therapies CSL   FSL   SVL   casemix_2014
    ##              <dbl> <chr>                <chr>     <chr> <chr> <chr>        <dbl>
    ##  1           10111 1st and 2nd Episodes 0 to 5 T… C1    F1    S1           0.608
    ##  2           10112 1st and 2nd Episodes 6 Therap… C1    F1    S2           0.727
    ##  3           10113 1st and 2nd Episodes 7 to 9 T… C1    F1    S3           0.847
    ##  4           10114 1st and 2nd Episodes 10 Thera… C1    F1    S4           0.966
    ##  5           10115 1st and 2nd Episodes 11 to 13… C1    F1    S5           1.09 
    ##  6           10121 1st and 2nd Episodes 0 to 5 T… C1    F2    S1           0.763
    ##  7           10122 1st and 2nd Episodes 6 Therap… C1    F2    S2           0.866
    ##  8           10123 1st and 2nd Episodes 7 to 9 T… C1    F2    S3           0.968
    ##  9           10124 1st and 2nd Episodes 10 Thera… C1    F2    S4           1.07 
    ## 10           10125 1st and 2nd Episodes 11 to 13… C1    F2    S5           1.17 
    ## # … with 143 more rows
…
For each question below, please follow the four-part approach laid out
in lecture. I have given you the question (step 1). You should write out
your query (step 2), show the plot or table that results from this query
(step 3), and write out the answer to the question in a sentence (step
4).

    provider_hhrg_wt_v1 <- provider_hhrg_wt %>%
      filter(Smry_Ctgry == "PROVIDER") %>% # We are just going to work with PROVIDER
      distinct(Prvdr_ID, Prvdr_Name, State)

    provider_hhrg_wt_v1

    ## # A tibble: 8,652 × 3
    ##    State Prvdr_ID Prvdr_Name                                  
    ##    <chr> <chr>    <chr>                                       
    ##  1 AK    027002   HOSPICE & HOME CARE OF JUNEAU               
    ##  2 AL    017009   ALACARE HOME HEALTH & HOSPICE               
    ##  3 AL    017014   AMEDISYS HOME HEALTH OF BLOUNTSVILLE        
    ##  4 AL    017016   SOUTHEAST ALABAMA HOMECARE                  
    ##  5 AL    017018   GENTIVA HEALTH SERVICES                     
    ##  6 AL    017024   SOUTHEAST ALABAMA HOMECARE                  
    ##  7 AL    017025   SAAD HEALTHCARE                             
    ##  8 AL    017034   MERCY MEDICAL HOME HEALTH                   
    ##  9 AL    017035   INFIRMARY HOMECARE OF MOBILE                
    ## 10 AL    017051   AMEDISYS HOME HEALTH LAKESHORE OF BIRMINGHAM
    ## # … with 8,642 more rows
…
    provider_sum

    ## # A tibble: 8,652 × 6
    ##    Prvdr_ID Prvdr_Name  State Mean_Pymt_Epsd_… Mean_Casemix_we… Total_number_ep…
    ##    <chr>    <chr>       <chr>            <dbl>            <dbl>            <dbl>
    ##  1 017009   ALACARE HO… AL               2379.            0.982            11659
    ##  2 017013   GENTIVA HE… AL               2831.            1.27               640
    ##  3 017014   AMEDISYS H… AL               2408.            0.910              481
    ##  4 017016   SOUTHEAST … AL               2084.            0.836              790
    ##  5 017018   GENTIVA HE… AL               2599.            1.12              2460
    ##  6 017020   AMEDISYS H… AL               2241.            0.946             1007
    ##  7 017024   SOUTHEAST … AL               2054.            0.839             1783
    ##  8 017025   SAAD HEALT… AL               2465.            1.01              2184
    ##  9 017026   GENTIVA HE… AL               3198.            1.41              1085
    ## 10 017027   HGA HOMECA… AL               2324.            1.03              1704
    ## # … with 8,642 more rows
…
